ula_mips/simulation/qsim/ula_mips.msim.vcd
$comment
	File created using the following command:
		vcd file ula_mips.msim.vcd -direction
$end
$date
	Thu Nov 08 15:03:25 2018
$end
$version
	ModelSim Version 10.4d
$end
$timescale
	1ps
$end

$scope module decoder_vlg_vec_tst $end
$var reg 32 ! endereco_entrada [31:0] $end
$var wire 1 " chave $end
$var wire 1 # memoria_leitura $end
$var wire 1 $ seven_segments $end

$scope module i1 $end
$var wire 1 % gnd $end
$var wire 1 & vcc $end
$var wire 1 ' unknown $end
$var tri1 1 ( devclrn $end
$var tri1 1 ) devpor $end
$var tri1 1 * devoe $end
$var wire 1 + endereco_entrada[31]~input_o $end
$var wire 1 , memoria_leitura~output_o $end
$var wire 1 - seven_segments~output_o $end
$var wire 1 . chave~output_o $end
$var wire 1 / endereco_entrada[8]~input_o $end
$var wire 1 0 endereco_entrada[9]~input_o $end
$var wire 1 1 endereco_entrada[10]~input_o $end
$var wire 1 2 endereco_entrada[11]~input_o $end
$var wire 1 3 endereco_entrada[12]~input_o $end
$var wire 1 4 chave~0_combout $end
$var wire 1 5 endereco_entrada[13]~input_o $end
$var wire 1 6 endereco_entrada[14]~input_o $end
$var wire 1 7 endereco_entrada[15]~input_o $end
$var wire 1 8 endereco_entrada[16]~input_o $end
$var wire 1 9 chave~1_combout $end
$var wire 1 : endereco_entrada[17]~input_o $end
$var wire 1 ; endereco_entrada[18]~input_o $end
$var wire 1 < endereco_entrada[19]~input_o $end
$var wire 1 = endereco_entrada[20]~input_o $end
$var wire 1 > chave~2_combout $end
$var wire 1 ? endereco_entrada[21]~input_o $end
$var wire 1 @ endereco_entrada[22]~input_o $end
$var wire 1 A endereco_entrada[23]~input_o $end
$var wire 1 B endereco_entrada[24]~input_o $end
$var wire 1 C chave~3_combout $end
$var wire 1 D chave~4_combout $end
$var wire 1 E endereco_entrada[25]~input_o $end
$var wire 1 F endereco_entrada[26]~input_o $end
$var wire 1 G endereco_entrada[27]~input_o $end
$var wire 1 H endereco_entrada[28]~input_o $end
$var wire 1 I chave~5_combout $end
$var wire 1 J endereco_entrada[29]~input_o $end
$var wire 1 K endereco_entrada[30]~input_o $end
$var wire 1 L chave~6_combout $end
$var wire 1 M LessThan0~0_combout $end
$var wire 1 N endereco_entrada[1]~input_o $end
$var wire 1 O endereco_entrada[2]~input_o $end
$var wire 1 P endereco_entrada[3]~input_o $end
$var wire 1 Q endereco_entrada[4]~input_o $end
$var wire 1 R chave~7_combout $end
$var wire 1 S endereco_entrada[5]~input_o $end
$var wire 1 T endereco_entrada[6]~input_o $end
$var wire 1 U endereco_entrada[7]~input_o $end
$var wire 1 V chave~8_combout $end
$var wire 1 W endereco_entrada[0]~input_o $end
$var wire 1 X seven_segments~0_combout $end
$var wire 1 Y chave~9_combout $end
$upscope $end
$upscope $end
$enddefinitions $end
#0
$dumpvars
b0 !
0"
1#
0$
0%
1&
x'
1(
1)
1*
0+
1,
0-
0.
0/
00
01
02
03
14
05
06
07
08
19
0:
0;
0<
0=
1>
0?
0@
0A
0B
1C
1D
0E
0F
0G
0H
1I
0J
0K
1L
0M
0N
0O
0P
0Q
1R
0S
0T
0U
0V
0W
0X
0Y
$end
#40000
b100000 !
b101000 !
1P
1S
0R
#80000
b1101000 !
b1111000 !
b1011000 !
b1010000 !
0P
1Q
0S
1T
#120000
b1110000 !
b1111000 !
1P
1S
#160000
b11111000 !
b10111000 !
b10101000 !
b10100000 !
0P
0Q
0T
1U
1R
#200000
b10000000 !
b11000000 !
b11001000 !
1P
0S
1T
0R
#240000
b111001000 !
b101001000 !
b100001000 !
b100000000 !
0P
0T
0U
1/
1R
1V
1M
0,
0#
1X
1-
1$
#280000
b100000001 !
1W
1Y
0X
0-
1.
1"
0$
#320000
b101000001 !
b101000000 !
0W
1T
0V
0Y
1X
1-
0.
0"
1$
0X
0-
0$
#360000
b101100000 !
b101101000 !
1P
1S
0R
#400000
b101111000 !
b111111000 !
b110111000 !
b110011000 !
b110010000 !
0P
1Q
0S
0T
1U
#440000
b110110000 !
b110111000 !
1P
1S
#480000
b110101000 !
b111101000 !
b111100000 !
0P
0Q
1T
1R
#520000
b1111100000 !
b1011100000 !
b1001100000 !
b1001000000 !
b1000000000 !
b1000001000 !
1P
0S
0T
0U
0/
10
0R
0M
04
1,
0D
1#
0L
1M
0,
0#
#560000
b1000011000 !
b1000111000 !
b1000110000 !
0P
1Q
1S
#600000
b1001110000 !
b1001010000 !
b1001011000 !
1P
0S
1T
#640000
b1011011000 !
b1011001000 !
b1010001000 !
b1010000000 !
0P
0Q
0T
1U
1R
#680000
b1010100000 !
b1010101000 !
1P
1S
0R
#720000
b1010111000 !
b1011111000 !
b1011011000 !
b1011010000 !
0P
1Q
0S
1T
#760000
b1011110000 !
b1011111000 !
1P
1S
#800000
b1111111000 !
b1101111000 !
b1101101000 !
b1100101000 !
b1100100000 !
0P
0Q
0T
0U
1/
1R
#840000
b1100000000 !
b1101000000 !
b1101001000 !
1P
0S
1T
0R
#880000
b1101011000 !
b1101111000 !
b1101110000 !
0P
1Q
1S
#920000
b1111110000 !
b1110110000 !
b1110010000 !
b1110011000 !
1P
0S
0T
1U
#960000
b1110001000 !
b1111001000 !
b1111000000 !
0P
0Q
1T
1R
